Labs/HardwareSetup/lab2a/.Xil/Vivado-14160-Alexander-PC/hw_ila_data_1/zip_work/waveform.vcd
$date
        2023-Oct-26 22:38:11
$end
$version
        Vivado v2019.1 (64-bit)
$end
$timescale
        1ps
$end
$scope module dut $end
$var reg 32 " system_i/microblaze_0_local_memory/ILMB_abus [0:31] $end
$var reg 3 B JD_IBUF [2:0] $end
$var reg 1 E system_i/microblaze_0/Interrupt $end
$var reg 1 F system_i/axi_gpio_encoder/ip2intc_irpt $end
$var reg 1 G _TRIGGER $end
$var reg 1 H _WINDOW $end
$var reg 1 I _GAP $end
$upscope $end
$enddefinitions $end
#0
$dumpvars
b10000000000000000000111010011000 "
b11 B
0E
0F
0G
1H
0I
$end
#1
b10000000000000000000111010011100 "
#4
b10000000000000000000111010100000 "
#5
b10000000000000000000111010100100 "
#6
b10000000000000000000111010101000 "
#7
b10000000000000000000111010101100 "
#8
b10000000000000000000111010110000 "
#9
b10000000000000000000111010001100 "
#10
b10000000000000000000111010010000 "
#11
b10000000000000000000111010010100 "
#12
b10000000000000000000111010011000 "
#13
b10000000000000000000111010011100 "
#16
b10000000000000000000111010100000 "
#17
b10000000000000000000111010100100 "
#18
b10000000000000000000111010101000 "
#19
b10000000000000000000111010101100 "
#20
b10000000000000000000111010110000 "
#21
b10000000000000000000111010001100 "
#22
b10000000000000000000111010010000 "
#23
b10000000000000000000111010010100 "
#24
b10000000000000000000111010011000 "
#25
b10000000000000000000111010011100 "
#28
b10000000000000000000111010100000 "
#29
b10000000000000000000111010100100 "
#30
b10000000000000000000111010101000 "
#31
b10000000000000000000111010101100 "
#32
b10000000000000000000111010110000 "
#33
b10000000000000000000111010001100 "
#34
b10000000000000000000111010010000 "
#35
b10000000000000000000111010010100 "
#36
b10000000000000000000111010011000 "
#37
b10000000000000000000111010011100 "
#40
b10000000000000000000111010100000 "
#41
b10000000000000000000111010100100 "
#42
b10000000000000000000111010101000 "
#43
b10000000000000000000111010101100 "
#44
b10000000000000000000111010110000 "
#45
b10000000000000000000111010001100 "
#46
b10000000000000000000111010010000 "
#47
b10000000000000000000111010010100 "
#48
b10000000000000000000111010011000 "
#49
b10000000000000000000111010011100 "
#52
b10000000000000000000111010100000 "
#53
b10000000000000000000111010100100 "
#54
b10000000000000000000111010101000 "
#55
b10000000000000000000111010101100 "
#56
b10000000000000000000111010110000 "
#57
b10000000000000000000111010001100 "
#58
b10000000000000000000111010010000 "
#59
b10000000000000000000111010010100 "
#60
b10000000000000000000111010011000 "
#61
b10000000000000000000111010011100 "
#64
b10000000000000000000111010100000 "
#65
b10000000000000000000111010100100 "
#66
b10000000000000000000111010101000 "
#67
b10000000000000000000111010101100 "
#68
b10000000000000000000111010110000 "
#69
b10000000000000000000111010001100 "
#70
b10000000000000000000111010010000 "
#71
b10000000000000000000111010010100 "
#72
b10000000000000000000111010011000 "
#73
b10000000000000000000111010011100 "
#76
b10000000000000000000111010100000 "
#77
b10000000000000000000111010100100 "
#78
b10000000000000000000111010101000 "
#79
b10000000000000000000111010101100 "
#80
b10000000000000000000111010110000 "
#81
b10000000000000000000111010001100 "
#82
b10000000000000000000111010010000 "
#83
b10000000000000000000111010010100 "
#84
b10000000000000000000111010011000 "
#85
b10000000000000000000111010011100 "
#88
b10000000000000000000111010100000 "
#89
b10000000000000000000111010100100 "
#90
b10000000000000000000111010101000 "
#91
b10000000000000000000111010101100 "
#92
b10000000000000000000111010110000 "
#93
b10000000000000000000111010001100 "
#94
b10000000000000000000111010010000 "
#95
b10000000000000000000111010010100 "
#96
b10000000000000000000111010011000 "
#97
b10000000000000000000111010011100 "
#100
b10000000000000000000111010100000 "
#101
b10000000000000000000111010100100 "
#102
b10000000000000000000111010101000 "
#103
b10000000000000000000111010101100 "
#104
b10000000000000000000111010110000 "
#105
b10000000000000000000111010001100 "
#106
b10000000000000000000111010010000 "
#107
b10000000000000000000111010010100 "
#108
b10000000000000000000111010011000 "
#109
b10000000000000000000111010011100 "
#112
b10000000000000000000111010100000 "
#113
b10000000000000000000111010100100 "
#114
b10000000000000000000111010101000 "
#115
b10000000000000000000111010101100 "
#116
b10000000000000000000111010110000 "
#117
b10000000000000000000111010001100 "
#118
b10000000000000000000111010010000 "
#119
b10000000000000000000111010010100 "
#120
b10000000000000000000111010011000 "
#121
b10000000000000000000111010011100 "
#124
b10000000000000000000111010100000 "
#125
b10000000000000000000111010100100 "
#126
b10000000000000000000111010101000 "
#127
b10000000000000000000111010101100 "
#128
b10000000000000000000111010110000 "
#129
b10000000000000000000111010001100 "
#130
b10000000000000000000111010010000 "
#131
b10000000000000000000111010010100 "
#132
b10000000000000000000111010011000 "
#133
b10000000000000000000111010011100 "
#136
b10000000000000000000111010100000 "
#137
b10000000000000000000111010100100 "
#138
b10000000000000000000111010101000 "
#139
b10000000000000000000111010101100 "
#140
b10000000000000000000111010110000 "
#141
b10000000000000000000111010001100 "
#142
b10000000000000000000111010010000 "
#143
b10000000000000000000111010010100 "
#144
b10000000000000000000111010011000 "
#145
b10000000000000000000111010011100 "
#148
b10000000000000000000111010100000 "
#149
b10000000000000000000111010100100 "
#150
b10000000000000000000111010101000 "
#151
b10000000000000000000111010101100 "
#152
b10000000000000000000111010110000 "
#153
b10000000000000000000111010001100 "
#154
b10000000000000000000111010010000 "
#155
b10000000000000000000111010010100 "
#156
b10000000000000000000111010011000 "
#157
b10000000000000000000111010011100 "
#160
b10000000000000000000111010100000 "
#161
b10000000000000000000111010100100 "
#162
b10000000000000000000111010101000 "
#163
b10000000000000000000111010101100 "
#164
b10000000000000000000111010110000 "
#165
b10000000000000000000111010001100 "
#166
b10000000000000000000111010010000 "
#167
b10000000000000000000111010010100 "
#168
b10000000000000000000111010011000 "
#169
b10000000000000000000111010011100 "
#172
b10000000000000000000111010100000 "
#173
b10000000000000000000111010100100 "
#174
b10000000000000000000111010101000 "
#175
b10000000000000000000111010101100 "
#176
b10000000000000000000111010110000 "
#177
b10000000000000000000111010001100 "
#178
b10000000000000000000111010010000 "
#179
b10000000000000000000111010010100 "
#180
b10000000000000000000111010011000 "
#181
b10000000000000000000111010011100 "
#184
b10000000000000000000111010100000 "
#185
b10000000000000000000111010100100 "
#186
b10000000000000000000111010101000 "
#187
b10000000000000000000111010101100 "
#188
b10000000000000000000111010110000 "
#189
b10000000000000000000111010001100 "
#190
b10000000000000000000111010010000 "
#191
b10000000000000000000111010010100 "
#192
b10000000000000000000111010011000 "
#193
b10000000000000000000111010011100 "
#196
b10000000000000000000111010100000 "
#197
b10000000000000000000111010100100 "
#198
b10000000000000000000111010101000 "
#199
b10000000000000000000111010101100 "
#200
b10000000000000000000111010110000 "
#201
b10000000000000000000111010001100 "
#202
b10000000000000000000111010010000 "
#203
b10000000000000000000111010010100 "
#204
b10000000000000000000111010011000 "
#205
b10000000000000000000111010011100 "
#208
b10000000000000000000111010100000 "
#209
b10000000000000000000111010100100 "
#210
b10000000000000000000111010101000 "
#211
b10000000000000000000111010101100 "
#212
b10000000000000000000111010110000 "
#213
b10000000000000000000111010001100 "
#214
b10000000000000000000111010010000 "
#215
b10000000000000000000111010010100 "
#216
b10000000000000000000111010011000 "
#217
b10000000000000000000111010011100 "
#220
b10000000000000000000111010100000 "
#221
b10000000000000000000111010100100 "
#222
b10000000000000000000111010101000 "
#223
b10000000000000000000111010101100 "
#224
b10000000000000000000111010110000 "
#225
b10000000000000000000111010001100 "
#226
b10000000000000000000111010010000 "
#227
b10000000000000000000111010010100 "
#228
b10000000000000000000111010011000 "
#229
b10000000000000000000111010011100 "
#232
b10000000000000000000111010100000 "
#233
b10000000000000000000111010100100 "
#234
b10000000000000000000111010101000 "
#235
b10000000000000000000111010101100 "
#236
b10000000000000000000111010110000 "
#237
b10000000000000000000111010001100 "
#238
b10000000000000000000111010010000 "
#239
b10000000000000000000111010010100 "
#240
b10000000000000000000111010011000 "
#241
b10000000000000000000111010011100 "
#244
b10000000000000000000111010100000 "
#245
b10000000000000000000111010100100 "
#246
b10000000000000000000111010101000 "
#247
b10000000000000000000111010101100 "
#248
b10000000000000000000111010110000 "
#249
b10000000000000000000111010001100 "
#250
b10000000000000000000111010010000 "
#251
b10000000000000000000111010010100 "
#252
b10000000000000000000111010011000 "
#253
b10000000000000000000111010011100 "
#256
b10000000000000000000111010100000 "
#257
b10000000000000000000111010100100 "
#258
b10000000000000000000111010101000 "
#259
b10000000000000000000111010101100 "
#260
b10000000000000000000111010110000 "
#261
b10000000000000000000111010001100 "
#262
b10000000000000000000111010010000 "
#263
b10000000000000000000111010010100 "
#264
b10000000000000000000111010011000 "
#265
b10000000000000000000111010011100 "
#268
b10000000000000000000111010100000 "
#269
b10000000000000000000111010100100 "
#270
b10000000000000000000111010101000 "
#271
b10000000000000000000111010101100 "
#272
b10000000000000000000111010110000 "
#273
b10000000000000000000111010001100 "
#274
b10000000000000000000111010010000 "
#275
b10000000000000000000111010010100 "
#276
b10000000000000000000111010011000 "
#277
b10000000000000000000111010011100 "
#280
b10000000000000000000111010100000 "
#281
b10000000000000000000111010100100 "
#282
b10000000000000000000111010101000 "
#283
b10000000000000000000111010101100 "
#284
b10000000000000000000111010110000 "
#285
b10000000000000000000111010001100 "
#286
b10000000000000000000111010010000 "
#287
b10000000000000000000111010010100 "
#288
b10000000000000000000111010011000 "
#289
b10000000000000000000111010011100 "
#292
b10000000000000000000111010100000 "
#293
b10000000000000000000111010100100 "
#294
b10000000000000000000111010101000 "
#295
b10000000000000000000111010101100 "
#296
b10000000000000000000111010110000 "
#297
b10000000000000000000111010001100 "
#298
b10000000000000000000111010010000 "
#299
b10000000000000000000111010010100 "
#300
b10000000000000000000111010011000 "
#301
b10000000000000000000111010011100 "
#304
b10000000000000000000111010100000 "
#305
b10000000000000000000111010100100 "
#306
b10000000000000000000111010101000 "
#307
b10000000000000000000111010101100 "
#308
b10000000000000000000111010110000 "
#309
b10000000000000000000111010001100 "
#310
b10000000000000000000111010010000 "
#311
b10000000000000000000111010010100 "
#312
b10000000000000000000111010011000 "
#313
b10000000000000000000111010011100 "
#316
b10000000000000000000111010100000 "
#317
b10000000000000000000111010100100 "
#318
b10000000000000000000111010101000 "
#319
b10000000000000000000111010101100 "
#320
b10000000000000000000111010110000 "
#321
b10000000000000000000111010001100 "
#322
b10000000000000000000111010010000 "
#323
b10000000000000000000111010010100 "
#324
b10000000000000000000111010011000 "
#325
b10000000000000000000111010011100 "
#328
b10000000000000000000111010100000 "
#329
b10000000000000000000111010100100 "
#330
b10000000000000000000111010101000 "
#331
b10000000000000000000111010101100 "
#332
b10000000000000000000111010110000 "
#333
b10000000000000000000111010001100 "
#334
b10000000000000000000111010010000 "
#335
b10000000000000000000111010010100 "
#336
b10000000000000000000111010011000 "
#337
b10000000000000000000111010011100 "
#340
b10000000000000000000111010100000 "
#341
b10000000000000000000111010100100 "
#342
b10000000000000000000111010101000 "
#343
b10000000000000000000111010101100 "
#344
b10000000000000000000111010110000 "
#345
b10000000000000000000111010001100 "
#346
b10000000000000000000111010010000 "
#347
b10000000000000000000111010010100 "
#348
b10000000000000000000111010011000 "
#349
b10000000000000000000111010011100 "
#352
b10000000000000000000111010100000 "
#353
b10000000000000000000111010100100 "
#354
b10000000000000000000111010101000 "
#355
b10000000000000000000111010101100 "
#356
b10000000000000000000111010110000 "
#357
b10000000000000000000111010001100 "
#358
b10000000000000000000111010010000 "
#359
b10000000000000000000111010010100 "
#360
b10000000000000000000111010011000 "
#361
b10000000000000000000111010011100 "
#364
b10000000000000000000111010100000 "
#365
b10000000000000000000111010100100 "
#366
b10000000000000000000111010101000 "
#367
b10000000000000000000111010101100 "
#368
b10000000000000000000111010110000 "
#369
b10000000000000000000111010001100 "
#370
b10000000000000000000111010010000 "
#371
b10000000000000000000111010010100 "
#372
b10000000000000000000111010011000 "
#373
b10000000000000000000111010011100 "
#376
b10000000000000000000111010100000 "
#377
b10000000000000000000111010100100 "
#378
b10000000000000000000111010101000 "
#379
b10000000000000000000111010101100 "
#380
b10000000000000000000111010110000 "
#381
b10000000000000000000111010001100 "
#382
b10000000000000000000111010010000 "
#383
b10000000000000000000111010010100 "
#384
b10000000000000000000111010011000 "
#385
b10000000000000000000111010011100 "
#388
b10000000000000000000111010100000 "
#389
b10000000000000000000111010100100 "
#390
b10000000000000000000111010101000 "
#391
b10000000000000000000111010101100 "
#392
b10000000000000000000111010110000 "
#393
b10000000000000000000111010001100 "
#394
b10000000000000000000111010010000 "
#395
b10000000000000000000111010010100 "
#396
b10000000000000000000111010011000 "
#397
b10000000000000000000111010011100 "
#400
b10000000000000000000111010100000 "
#401
b10000000000000000000111010100100 "
#402
b10000000000000000000111010101000 "
#403
b10000000000000000000111010101100 "
#404
b10000000000000000000111010110000 "
#405
b10000000000000000000111010001100 "
#406
b10000000000000000000111010010000 "
#407
b10000000000000000000111010010100 "
#408
b10000000000000000000111010011000 "
#409
b10000000000000000000111010011100 "
#412
b10000000000000000000111010100000 "
#413
b10000000000000000000111010100100 "
#414
b10000000000000000000111010101000 "
#415
b10000000000000000000111010101100 "
#416
b10000000000000000000111010110000 "
#417
b10000000000000000000111010001100 "
#418
b10000000000000000000111010010000 "
#419
b10000000000000000000111010010100 "
#420
b10000000000000000000111010011000 "
#421
b10000000000000000000111010011100 "
#424
b10000000000000000000111010100000 "
#425
b10000000000000000000111010100100 "
#426
b10000000000000000000111010101000 "
#427
b10000000000000000000111010101100 "
#428
b10000000000000000000111010110000 "
#429
b10000000000000000000111010001100 "
#430
b10000000000000000000111010010000 "
#431
b10000000000000000000111010010100 "
#432
b10000000000000000000111010011000 "
#433
b10000000000000000000111010011100 "
#436
b10000000000000000000111010100000 "
#437
b10000000000000000000111010100100 "
#438
b10000000000000000000111010101000 "
#439
b10000000000000000000111010101100 "
#440
b10000000000000000000111010110000 "
#441
b10000000000000000000111010001100 "
#442
b10000000000000000000111010010000 "
#443
b10000000000000000000111010010100 "
#444
b10000000000000000000111010011000 "
#445
b10000000000000000000111010011100 "
#448
b10000000000000000000111010100000 "
#449
b10000000000000000000111010100100 "
#450
b10000000000000000000111010101000 "
#451
b10000000000000000000111010101100 "
#452
b10000000000000000000111010110000 "
#453
b10000000000000000000111010001100 "
#454
b10000000000000000000111010010000 "
#455
b10000000000000000000111010010100 "
#456
b10000000000000000000111010011000 "
#457
b10000000000000000000111010011100 "
#460
b10000000000000000000111010100000 "
#461
b10000000000000000000111010100100 "
#462
b10000000000000000000111010101000 "
#463
b10000000000000000000111010101100 "
#464
b10000000000000000000111010110000 "
#465
b10000000000000000000111010001100 "
#466
b10000000000000000000111010010000 "
#467
b10000000000000000000111010010100 "
#468
b10000000000000000000111010011000 "
#469
b10000000000000000000111010011100 "
#472
b10000000000000000000111010100000 "
#473
b10000000000000000000111010100100 "
#474
b10000000000000000000111010101000 "
#475
b10000000000000000000111010101100 "
#476
b10000000000000000000111010110000 "
#477
b10000000000000000000111010001100 "
#478
b10000000000000000000111010010000 "
#479
b10000000000000000000111010010100 "
#480
b10000000000000000000111010011000 "
#481
b10000000000000000000111010011100 "
#484
b10000000000000000000111010100000 "
#485
b10000000000000000000111010100100 "
#486
b10000000000000000000111010101000 "
#487
b10000000000000000000111010101100 "
#488
b10000000000000000000111010110000 "
#489
b10000000000000000000111010001100 "
#490
b10000000000000000000111010010000 "
#491
b10000000000000000000111010010100 "
#492
b10000000000000000000111010011000 "
#493
b10000000000000000000111010011100 "
#496
b10000000000000000000111010100000 "
#497
b10000000000000000000111010100100 "
#498
b10000000000000000000111010101000 "
#499
b10000000000000000000111010101100 "
#500
b10000000000000000000111010110000 "
#501
b10000000000000000000111010001100 "
#502
b10000000000000000000111010010000 "
#503
b10000000000000000000111010010100 "
#504
b10000000000000000000111010011000 "
#505
b10000000000000000000111010011100 "
#508
b10000000000000000000111010100000 "
#509
b10000000000000000000111010100100 "
#510
b10000000000000000000111010101000 "
#511
b10000000000000000000111010101100 "
#512
b10000000000000000000111010110000 "
#513
b10000000000000000000111010001100 "
#514
b10000000000000000000111010010000 "
#515
b10000000000000000000111010010100 "
#516
b10000000000000000000111010011000 "
#517
b10000000000000000000111010011100 "
#520
b10000000000000000000111010100000 "
#521
b10000000000000000000111010100100 "
#522
b10000000000000000000111010101000 "
#523
b10000000000000000000111010101100 "
#524
b10000000000000000000111010110000 "
#525
b10000000000000000000111010001100 "
#526
b10000000000000000000111010010000 "
#527
b10000000000000000000111010010100 "
#528
b10000000000000000000111010011000 "
#529
b10000000000000000000111010011100 "
#532
b10000000000000000000111010100000 "
#533
b10000000000000000000111010100100 "
#534
b10000000000000000000111010101000 "
#535
b10000000000000000000111010101100 "
#536
b10000000000000000000111010110000 "
#537
b10000000000000000000111010001100 "
#538
b10000000000000000000111010010000 "
#539
b10000000000000000000111010010100 "
#540
b10000000000000000000111010011000 "
#541
b10000000000000000000111010011100 "
#544
b10000000000000000000111010100000 "
#545
b10000000000000000000111010100100 "
#546
b10000000000000000000111010101000 "
#547
b10000000000000000000111010101100 "
#548
b10000000000000000000111010110000 "
#549
b10000000000000000000111010001100 "
#550
b10000000000000000000111010010000 "
#551
b10000000000000000000111010010100 "
#552
b10000000000000000000111010011000 "
#553
b10000000000000000000111010011100 "
#556
b10000000000000000000111010100000 "
#557
b10000000000000000000111010100100 "
#558
b10000000000000000000111010101000 "
#559
b10000000000000000000111010101100 "
#560
b10000000000000000000111010110000 "
#561
b10000000000000000000111010001100 "
#562
b10000000000000000000111010010000 "
#563
b10000000000000000000111010010100 "
#564
b10000000000000000000111010011000 "
#565
b10000000000000000000111010011100 "
#568
b10000000000000000000111010100000 "
#569
b10000000000000000000111010100100 "
#570
b10000000000000000000111010101000 "
#571
b10000000000000000000111010101100 "
#572
b10000000000000000000111010110000 "
#573
b10000000000000000000111010001100 "
#574
b10000000000000000000111010010000 "
#575
b10000000000000000000111010010100 "
#576
b10000000000000000000111010011000 "
#577
b10000000000000000000111010011100 "
#580
b10000000000000000000111010100000 "
#581
b10000000000000000000111010100100 "
#582
b10000000000000000000111010101000 "
#583
b10000000000000000000111010101100 "
#584
b10000000000000000000111010110000 "
#585
b10000000000000000000111010001100 "
#586
b10000000000000000000111010010000 "
#587
b10000000000000000000111010010100 "
#588
b10000000000000000000111010011000 "
#589
b10000000000000000000111010011100 "
#592
b10000000000000000000111010100000 "
#593
b10000000000000000000111010100100 "
#594
b10000000000000000000111010101000 "
#595
b10000000000000000000111010101100 "
#596
b10000000000000000000111010110000 "
#597
b10000000000000000000111010001100 "
#598
b10000000000000000000111010010000 "
#599
b10000000000000000000111010010100 "
#600
b10000000000000000000111010011000 "
#601
b10000000000000000000111010011100 "
#604
b10000000000000000000111010100000 "
#605
b10000000000000000000111010100100 "
#606
b10000000000000000000111010101000 "
#607
b10000000000000000000111010101100 "
#608
b10000000000000000000111010110000 "
#609
b10000000000000000000111010001100 "
#610
b10000000000000000000111010010000 "
#611
b10000000000000000000111010010100 "
#612
b10000000000000000000111010011000 "
#613
b10000000000000000000111010011100 "
#616
b10000000000000000000111010100000 "
#617
b10000000000000000000111010100100 "
#618
b10000000000000000000111010101000 "
#619
b10000000000000000000111010101100 "
#620
b10000000000000000000111010110000 "
#621
b10000000000000000000111010001100 "
#622
b10000000000000000000111010010000 "
#623
b10000000000000000000111010010100 "
#624
b10000000000000000000111010011000 "
#625
b10000000000000000000111010011100 "
#628
b10000000000000000000111010100000 "
#629
b10000000000000000000111010100100 "
#630
b10000000000000000000111010101000 "
#631
b10000000000000000000111010101100 "
#632
b10000000000000000000111010110000 "
#633
b10000000000000000000111010001100 "
#634
b10000000000000000000111010010000 "
#635
b10000000000000000000111010010100 "
#636
b10000000000000000000111010011000 "
#637
b10000000000000000000111010011100 "
#640
b10000000000000000000111010100000 "
#641
b10000000000000000000111010100100 "
#642
b10000000000000000000111010101000 "
#643
b10000000000000000000111010101100 "
#644
b10000000000000000000111010110000 "
#645
b10000000000000000000111010001100 "
#646
b10000000000000000000111010010000 "
#647
b10000000000000000000111010010100 "
#648
b10000000000000000000111010011000 "
#649
b10000000000000000000111010011100 "
#652
b10000000000000000000111010100000 "
#653
b10000000000000000000111010100100 "
#654
b10000000000000000000111010101000 "
#655
b10000000000000000000111010101100 "
#656
b10000000000000000000111010110000 "
#657
b10000000000000000000111010001100 "
#658
b10000000000000000000111010010000 "
#659
b10000000000000000000111010010100 "
#660
b10000000000000000000111010011000 "
#661
b10000000000000000000111010011100 "
#664
b10000000000000000000111010100000 "
#665
b10000000000000000000111010100100 "
#666
b10000000000000000000111010101000 "
#667
b10000000000000000000111010101100 "
#668
b10000000000000000000111010110000 "
#669
b10000000000000000000111010001100 "
#670
b10000000000000000000111010010000 "
#671
b10000000000000000000111010010100 "
#672
b10000000000000000000111010011000 "
#673
b10000000000000000000111010011100 "
#676
b10000000000000000000111010100000 "
#677
b10000000000000000000111010100100 "
#678
b10000000000000000000111010101000 "
#679
b10000000000000000000111010101100 "
#680
b10000000000000000000111010110000 "
#681
b10000000000000000000111010001100 "
#682
b10000000000000000000111010010000 "
#683
b10000000000000000000111010010100 "
#684
b10000000000000000000111010011000 "
#685
b10000000000000000000111010011100 "
#688
b10000000000000000000111010100000 "
#689
b10000000000000000000111010100100 "
#690
b10000000000000000000111010101000 "
#691
b10000000000000000000111010101100 "
#692
b10000000000000000000111010110000 "
#693
b10000000000000000000111010001100 "
#694
b10000000000000000000111010010000 "
#695
b10000000000000000000111010010100 "
#696
b10000000000000000000111010011000 "
#697
b10000000000000000000111010011100 "
#700
b10000000000000000000111010100000 "
#701
b10000000000000000000111010100100 "
#702
b10000000000000000000111010101000 "
#703
b10000000000000000000111010101100 "
#704
b10000000000000000000111010110000 "
#705
b10000000000000000000111010001100 "
#706
b10000000000000000000111010010000 "
#707
b10000000000000000000111010010100 "
#708
b10000000000000000000111010011000 "
#709
b10000000000000000000111010011100 "
#712
b10000000000000000000111010100000 "
#713
b10000000000000000000111010100100 "
#714
b10000000000000000000111010101000 "
#715
b10000000000000000000111010101100 "
#716
b10000000000000000000111010110000 "
#717
b10000000000000000000111010001100 "
#718
b10000000000000000000111010010000 "
#719
b10000000000000000000111010010100 "
#720
b10000000000000000000111010011000 "
#721
b10000000000000000000111010011100 "
#724
b10000000000000000000111010100000 "
#725
b10000000000000000000111010100100 "
#726
b10000000000000000000111010101000 "
#727
b10000000000000000000111010101100 "
#728
b10000000000000000000111010110000 "
#729
b10000000000000000000111010001100 "
#730
b10000000000000000000111010010000 "
#731
b10000000000000000000111010010100 "
#732
b10000000000000000000111010011000 "
#733
b10000000000000000000111010011100 "
#736
b10000000000000000000111010100000 "
#737
b10000000000000000000111010100100 "
#738
b10000000000000000000111010101000 "
#739
b10000000000000000000111010101100 "
#740
b10000000000000000000111010110000 "
#741
b10000000000000000000111010001100 "
#742
b10000000000000000000111010010000 "
#743
b10000000000000000000111010010100 "
#744
b10000000000000000000111010011000 "
#745
b10000000000000000000111010011100 "
#748
b10000000000000000000111010100000 "
#749
b10000000000000000000111010100100 "
#750
b10000000000000000000111010101000 "
#751
b10000000000000000000111010101100 "
#752
b10000000000000000000111010110000 "
#753
b10000000000000000000111010001100 "
#754
b10000000000000000000111010010000 "
#755
b10000000000000000000111010010100 "
#756
b10000000000000000000111010011000 "
#757
b10000000000000000000111010011100 "
#760
b10000000000000000000111010100000 "
#761
b10000000000000000000111010100100 "
#762
b10000000000000000000111010101000 "
#763
b10000000000000000000111010101100 "
#764
b10000000000000000000111010110000 "
#765
b10000000000000000000111010001100 "
#766
b10000000000000000000111010010000 "
#767
b10000000000000000000111010010100 "
#768
b10000000000000000000111010011000 "
#769
b10000000000000000000111010011100 "
#772
b10000000000000000000111010100000 "
#773
b10000000000000000000111010100100 "
#774
b10000000000000000000111010101000 "
#775
b10000000000000000000111010101100 "
#776
b10000000000000000000111010110000 "
#777
b10000000000000000000111010001100 "
#778
b10000000000000000000111010010000 "
#779
b10000000000000000000111010010100 "
#780
b10000000000000000000111010011000 "
#781
b10000000000000000000111010011100 "
#784
b10000000000000000000111010100000 "
#785
b10000000000000000000111010100100 "
#786
b10000000000000000000111010101000 "
#787
b10000000000000000000111010101100 "
#788
b10000000000000000000111010110000 "
#789
b10000000000000000000111010001100 "
#790
b10000000000000000000111010010000 "
#791
b10000000000000000000111010010100 "
#792
b10000000000000000000111010011000 "
#793
b10000000000000000000111010011100 "
#796
b10000000000000000000111010100000 "
#797
b10000000000000000000111010100100 "
#798
b10000000000000000000111010101000 "
#799
b10000000000000000000111010101100 "
#800
b10000000000000000000111010110000 "
#801
b10000000000000000000111010001100 "
#802
b10000000000000000000111010010000 "
#803
b10000000000000000000111010010100 "
#804
b10000000000000000000111010011000 "
#805
b10000000000000000000111010011100 "
#808
b10000000000000000000111010100000 "
#809
b10000000000000000000111010100100 "
#810
b10000000000000000000111010101000 "
#811
b10000000000000000000111010101100 "
#812
b10000000000000000000111010110000 "
#813
b10000000000000000000111010001100 "
#814
b10000000000000000000111010010000 "
#815
b10000000000000000000111010010100 "
#816
b10000000000000000000111010011000 "
#817
b10000000000000000000111010011100 "
#820
b10000000000000000000111010100000 "
#821
b10000000000000000000111010100100 "
#822
b10000000000000000000111010101000 "
#823
b10000000000000000000111010101100 "
#824
b10000000000000000000111010110000 "
#825
b10000000000000000000111010001100 "
#826
b10000000000000000000111010010000 "
#827
b10000000000000000000111010010100 "
#828
b10000000000000000000111010011000 "
#829
b10000000000000000000111010011100 "
#832
b10000000000000000000111010100000 "
#833
b10000000000000000000111010100100 "
#834
b10000000000000000000111010101000 "
#835
b10000000000000000000111010101100 "
#836
b10000000000000000000111010110000 "
#837
b10000000000000000000111010001100 "
#838
b10000000000000000000111010010000 "
#839
b10000000000000000000111010010100 "
#840
b10000000000000000000111010011000 "
#841
b10000000000000000000111010011100 "
#844
b10000000000000000000111010100000 "
#845
b10000000000000000000111010100100 "
#846
b10000000000000000000111010101000 "
#847
b10000000000000000000111010101100 "
#848
b10000000000000000000111010110000 "
#849
b10000000000000000000111010001100 "
#850
b10000000000000000000111010010000 "
#851
b10000000000000000000111010010100 "
#852
b10000000000000000000111010011000 "
#853
b10000000000000000000111010011100 "
#856
b10000000000000000000111010100000 "
#857
b10000000000000000000111010100100 "
#858
b10000000000000000000111010101000 "
#859
b10000000000000000000111010101100 "
#860
b10000000000000000000111010110000 "
#861
b10000000000000000000111010001100 "
#862
b10000000000000000000111010010000 "
#863
b10000000000000000000111010010100 "
#864
b10000000000000000000111010011000 "
#865
b10000000000000000000111010011100 "
#868
b10000000000000000000111010100000 "
#869
b10000000000000000000111010100100 "
#870
b10000000000000000000111010101000 "
#871
b10000000000000000000111010101100 "
#872
b10000000000000000000111010110000 "
#873
b10000000000000000000111010001100 "
#874
b10000000000000000000111010010000 "
#875
b10000000000000000000111010010100 "
#876
b10000000000000000000111010011000 "
#877
b10000000000000000000111010011100 "
#880
b10000000000000000000111010100000 "
#881
b10000000000000000000111010100100 "
#882
b10000000000000000000111010101000 "
#883
b10000000000000000000111010101100 "
#884
b10000000000000000000111010110000 "
#885
b10000000000000000000111010001100 "
#886
b10000000000000000000111010010000 "
#887
b10000000000000000000111010010100 "
#888
b10000000000000000000111010011000 "
#889
b10000000000000000000111010011100 "
#892
b10000000000000000000111010100000 "
#893
b10000000000000000000111010100100 "
#894
b10000000000000000000111010101000 "
#895
b10000000000000000000111010101100 "
#896
b10000000000000000000111010110000 "
#897
b10000000000000000000111010001100 "
#898
b10000000000000000000111010010000 "
#899
b10000000000000000000111010010100 "
#900
b10000000000000000000111010011000 "
#901
b10000000000000000000111010011100 "
#904
b10000000000000000000111010100000 "
#905
b10000000000000000000111010100100 "
#906
b10000000000000000000111010101000 "
#907
b10000000000000000000111010101100 "
#908
b10000000000000000000111010110000 "
#909
b10000000000000000000111010001100 "
#910
b10000000000000000000111010010000 "
#911
b10000000000000000000111010010100 "
#912
b10000000000000000000111010011000 "
#913
b10000000000000000000111010011100 "
#916
b10000000000000000000111010100000 "
#917
b10000000000000000000111010100100 "
#918
b10000000000000000000111010101000 "
#919
b10000000000000000000111010101100 "
#920
b10000000000000000000111010110000 "
#921
b10000000000000000000111010001100 "
#922
b10000000000000000000111010010000 "
#923
b10000000000000000000111010010100 "
#924
b10000000000000000000111010011000 "
#925
b10000000000000000000111010011100 "
#928
b10000000000000000000111010100000 "
#929
b10000000000000000000111010100100 "
#930
b10000000000000000000111010101000 "
#931
b10000000000000000000111010101100 "
#932
b10000000000000000000111010110000 "
#933
b10000000000000000000111010001100 "
#934
b10000000000000000000111010010000 "
#935
b10000000000000000000111010010100 "
#936
b10000000000000000000111010011000 "
#937
b10000000000000000000111010011100 "
#940
b10000000000000000000111010100000 "
#941
b10000000000000000000111010100100 "
#942
b10000000000000000000111010101000 "
#943
b10000000000000000000111010101100 "
#944
b10000000000000000000111010110000 "
#945
b10000000000000000000111010001100 "
#946
b10000000000000000000111010010000 "
#947
b10000000000000000000111010010100 "
#948
b10000000000000000000111010011000 "
#949
b10000000000000000000111010011100 "
#952
b10000000000000000000111010100000 "
#953
b10000000000000000000111010100100 "
#954
b10000000000000000000111010101000 "
#955
b10000000000000000000111010101100 "
#956
b10000000000000000000111010110000 "
#957
b10000000000000000000111010001100 "
#958
b10000000000000000000111010010000 "
#959
b10000000000000000000111010010100 "
#960
b10000000000000000000111010011000 "
#961
b10000000000000000000111010011100 "
#964
b10000000000000000000111010100000 "
#965
b10000000000000000000111010100100 "
#966
b10000000000000000000111010101000 "
#967
b10000000000000000000111010101100 "
#968
b10000000000000000000111010110000 "
#969
b10000000000000000000111010001100 "
#970
b10000000000000000000111010010000 "
#971
b10000000000000000000111010010100 "
#972
b10000000000000000000111010011000 "
#973
b10000000000000000000111010011100 "
#976
b10000000000000000000111010100000 "
